                                                                                                               Name Philip J. Fry I (Fry)
Born August 14, 1974
Height 5ft 9in
Weight: 180 lbs.
Native to the 20th century who was cryogenically frozen seconds into the year 2000, having fallen in just as 1999 ended.
He was revived in 2999 and subsequently became a delivery boy for the Planet Express Company. He is the protagonist of Futurama.
 
